{
  "A Dynamic display configuration tool.": "A Dynamic display configuration tool.",
  "A window switcher, application launcher and dmenu replacement.": "A window switcher, application launcher and dmenu replacement.",
  "Applications as Flatpaks": "Applications as Flatpaks",
  "Built on top of the best": "Built on top of the best",
  "CLI application to control the NetworkManager configuration. It gives you the power of the nm-applet, but in the terminal.": "CLI application to control the NetworkManager configuration. It gives you the power of the nm-applet, but in the terminal.",
  "Configuration": "Configuration",
  "Download Now": "Download Now",
  "Download thousands of open-source and proprietary, containerized applications thanks to Flatpak.": "Download thousands of open-source and proprietary, containerized applications thanks to Flatpak.",
  "Fedora Atomic Image": "Fedora Atomic Image",
  "Fedora Community & Support": "Fedora Community & Support",
  "Fedora Sway Atomic": "Fedora Sway Atomic",
  "Fedora Sway Atomic provides the popular Sway tiling window manager in an atomic fashion. It makes Sway accessible and appealing to both novices and advanced users who prefer not to use a mouse, touchpad, or other pointing device to interact with their environment. Featuring lightweight applications for web browsing, text editing, and media playback, Fedora Sway Atomic offers a complete experience with a minimalist user interface.": "Fedora Sway Atomic provides the popular Sway tiling window manager in an atomic fashion. It makes Sway accessible and appealing to both novices and advanced users who prefer not to use a mouse, touchpad, or other pointing device to interact with their environment. Featuring lightweight applications for web browsing, text editing, and media playback, Fedora Sway Atomic offers a complete experience with a minimalist user interface.",
  "Fedora creates an innovative, free and open source platform for hardware, clouds, and containers that enables software developers and community members to build tailored solutions for their users.": "Fedora creates an innovative, free and open source platform for hardware, clouds, and containers that enables software developers and community members to build tailored solutions for their users.",
  "File manager for Linux and other Unix-like systems.": "File manager for Linux and other Unix-like systems.",
  "Foot is a fast, lightweight and minimalistic Wayland terminal emulator.": "Foot is a fast, lightweight and minimalistic Wayland terminal emulator.",
  "Going Online": "Going Online",
  "Highly customizable Wayland bar for Sway and Wlroots based compositors.": "Highly customizable Wayland bar for Sway and Wlroots based compositors.",
  "Highly customizable Wayland window manager Sway is great for keyboard-first workflows.": "Highly customizable Wayland window manager Sway is great for keyboard-first workflows.",
  "Highly-configurable and lightweight notification daemon.": "Highly-configurable and lightweight notification daemon.",
  "Just a click and you're connected to your wireless LAN router, or online via many supported 3G mobile broadband cards.": "Just a click and you're connected to your wireless LAN router, or online via many supported 3G mobile broadband cards.",
  "NetworkManager Applet": "NetworkManager Applet",
  "Podman for development": "Podman for development",
  "Podman is a daemonless container engine for developing, managing and running Open Container Initiative (OCI) containers and container images on your Linux system.": "Podman is a daemonless container engine for developing, managing and running Open Container Initiative (OCI) containers and container images on your Linux system.",
  "Screenshot of Fedora Sway Atomic": "Screenshot of Fedora Sway Atomic",
  "Simple screen locker.": "Simple screen locker.",
  "The popular and free web browser backed by Mozilla, a non-profit dedicated to internet health and privacy.": "The popular and free web browser backed by Mozilla, a non-profit dedicated to internet health and privacy.",
  "Utilities": "Utilities",
  "imv is a command line image viewer intended for use with tiling window managers.": "imv is a command line image viewer intended for use with tiling window managers.",
  "light gets and sets the screen back-light brightness on Linux.": "light gets and sets the screen back-light brightness on Linux.",
  "rpm-ostree is a hybrid image/package system. It combines libostree and libdnf to provide atomic and safe upgrades with local RPM package layering.": "rpm-ostree is a hybrid image/package system. It combines libostree and libdnf to provide atomic and safe upgrades with local RPM package layering."
}