{
  "A feature-rich, modern desktop designed to keep out the way of the user.": "A feature-rich, modern desktop designed to keep out the way of the user.",
  "A previous version of your system is always kept around, just in case. If you need to go back in time, you can!": "A previous version of your system is always kept around, just in case. If you need to go back in time, you can!",
  "An atomic desktop operating system featuring the keyboard-driven Sway window manager.": "An atomic desktop operating system featuring the keyboard-driven Sway window manager.",
  "An atomic desktop operating system featuring the modern and elegant GNOME Desktop": "An atomic desktop operating system featuring the modern and elegant GNOME Desktop",
  "An atomic desktop operating system featuring the modern and modular Plasma Desktop": "An atomic desktop operating system featuring the modern and modular Plasma Desktop",
  "Applications as Flatpaks": "Applications as Flatpaks",
  "Atomic": "Atomic",
  "Budgie Desktop": "Budgie Desktop",
  "Built On Top of the Best": "Built On Top of the Best",
  "Containerized": "Containerized",
  "Developer-Friendly": "Developer-Friendly",
  "Download Now": "Download Now",
  "Download thousands of open-source and proprietary, containerized applications thanks to Flatpak.": "Download thousands of open-source and proprietary, containerized applications thanks to Flatpak.",
  "Each version is updated for approximately 13 months, and each update takes effect on your next reboot, keeping your system consistent. You can even keep working while the updates are being applied!": "Each version is updated for approximately 13 months, and each update takes effect on your next reboot, keeping your system consistent. You can even keep working while the updates are being applied!",
  "Easily create OCI containers which are fully-integrated with your host system, enabling seamless usage of both GUI and CLI tools.": "Easily create OCI containers which are fully-integrated with your host system, enabling seamless usage of both GUI and CLI tools.",
  "Fedora Community & Support": "Fedora Community & Support",
  "Fedora CoreOS is an automatically updating, minimal, monolithic, container-focused operating system, designed for clusters but also operable standalone, optimized for Kubernetes but also great without it.": "Fedora CoreOS is an automatically updating, minimal, monolithic, container-focused operating system, designed for clusters but also operable standalone, optimized for Kubernetes but also great without it.",
  "Fedora Onyx": "Fedora Onyx",
  "Fedora Onyx ships the popular Budgie desktop environment in an atomic-desktops fashion. This enables you to surf the web, play games, enjoy music and video, manage files, and be productive without having to worry about breaking your system.": "Fedora Onyx ships the popular Budgie desktop environment in an atomic-desktops fashion. This enables you to surf the web, play games, enjoy music and video, manage files, and be productive without having to worry about breaking your system.",
  "Fedora creates an innovative, free and open source platform for hardware, clouds, and containers that enables software developers and community members to build tailored solutions for their users.": "Fedora creates an innovative, free and open source platform for hardware, clouds, and containers that enables software developers and community members to build tailored solutions for their users.",
  "Graphical applications are installed via Flatpak, and keep themselves separate from the base system. They also allow for fine-grained control over their permissions.": "Graphical applications are installed via Flatpak, and keep themselves separate from the base system. They also allow for fine-grained control over their permissions.",
  "Private, Trusted, Open Source": "Private, Trusted, Open Source",
  "Related Projects": "Related Projects",
  "Reliable": "Reliable",
  "Safe": "Safe",
  "Screenshot of Budgie Desktop": "Screenshot of Budgie Desktop",
  "Screenshot of blank laptop as background to Budgie desktop": "Screenshot of blank laptop as background to Budgie desktop",
  "The Budgie desktop experience in an atomic-desktops fashion.": "The Budgie desktop experience in an atomic-desktops fashion.",
  "The whole system is updated in one go, and an update will not apply if anything goes wrong, meaning you will <i>always</i> have a working computer.": "The whole system is updated in one go, and an update will not apply if anything goes wrong, meaning you will <i>always</i> have a working computer.",
  "There are no ads, and all your data belongs to you! Fedora is built on the latest open source technologies, and backed by Red Hat.": "There are no ads, and all your data belongs to you! Fedora is built on the latest open source technologies, and backed by Red Hat.",
  "Toolbx for Development": "Toolbx for Development",
  "Toolbx keeps all of your development tools neatly organized per-project. Keep multiple versions of your tools independent from each other and unaffected by changes to the base system.": "Toolbx keeps all of your development tools neatly organized per-project. Keep multiple versions of your tools independent from each other and unaffected by changes to the base system.",
  "Why Fedora Onyx?": "Why Fedora Onyx?",
  "rpm-ostree is a hybrid image/package system. It combines libostree and libdnf to provide atomic and safe upgrades with local RPM package layering.": "rpm-ostree is a hybrid image/package system. It combines libostree and libdnf to provide atomic and safe upgrades with local RPM package layering."
}