{
  "A powerful image composition and graphic editing app, similar to Adobe\u00ae Photoshop\u2122.": "A powerful image composition and graphic editing app, similar to Adobe\u00ae Photoshop\u2122.",
  "Allow you to visualize any planet aspect at any time. Include extended feature database and texture.": "Allow you to visualize any planet aspect at any time. Include extended feature database and texture.",
  "AstrOmatic is a set of astronomical pipeline software.": "AstrOmatic is a set of astronomical pipeline software.",
  "Astromatic": "Astromatic",
  "Astropy": "Astropy",
  "Astropy is a community python library for Astronomy to foster interoperability between astronomy packages.": "Astropy is a community python library for Astronomy to foster interoperability between astronomy packages.",
  "Celestia": "Celestia",
  "Documentation": "Documentation",
  "Featured Applications": "Featured Applications",
  "Fedora Astronomy Lab": "Fedora Astronomy Lab",
  "Fedora Astronomy brings a complete open source toolchain to both amateur and professional astronomers.\n\nThe Spin provides the Fedora KDE desktop enhanced with a complete scientific Python environment and the AstrOmatic software for data analysis. KStars was added to provide a full featured astrophotography tool. As KStars uses the INDI library to control equipment, various telescopes, cameras etc. are supported. Summarized, Fedora Astronomy provides a complete set of software, from the observation planning to the final results.": "Fedora Astronomy brings a complete open source toolchain to both amateur and professional astronomers.\n\nThe Spin provides the Fedora KDE desktop enhanced with a complete scientific Python environment and the AstrOmatic software for data analysis. KStars was added to provide a full featured astrophotography tool. As KStars uses the INDI library to control equipment, various telescopes, cameras etc. are supported. Summarized, Fedora Astronomy provides a complete set of software, from the observation planning to the final results.",
  "GIMP": "GIMP",
  "INDI": "INDI",
  "Kstars": "Kstars",
  "Kstars provides an accurate graphical simulation of the night sky, from any location on Earth, at any date and time.": "Kstars provides an accurate graphical simulation of the night sky, from any location on Earth, at any date and time.",
  "Redshift": "Redshift",
  "Redshift adjusts the color temperature of your screen according to your surroundings.": "Redshift adjusts the color temperature of your screen according to your surroundings.",
  "Siril": "Siril",
  "Siril, a free astronomical image processing software.": "Siril, a free astronomical image processing software.",
  "The INDI Library is a cross-platform software designed for automation and control of astronomical instruments.": "The INDI Library is a cross-platform software designed for automation and control of astronomical instruments.",
  "The free space simulation that lets you explore our universe in three dimensions.": "The free space simulation that lets you explore our universe in three dimensions.",
  "Virtualplanet": "Virtualplanet"
}